<svg width="1500" height="1026" viewBox="0 0 1500 1026" fill="none" xmlns="http://www.w3.org/2000/svg">
<path opacity="0.08" d="M-39.0394 346.041C-39.0394 346.041 298.488 -129.358 864.036 126.963C1429.58 383.285 1414.34 313.91 1701.96 329.976C1989.59 346.041 1817.71 710.441 1817.71 710.441C1817.71 710.441 -73 622.81 -73 619.889C-73 616.968 -39.0394 346.041 -39.0394 346.041Z" fill="#FFC000"/>
<path opacity="0.08" d="M-530.667 385.042C-530.667 385.042 -109.924 -207.603 595.058 111.933C1300.04 431.47 2075 36.5568 2075 36.5568L1783.85 839.312C1783.85 839.312 -573 730.068 -573 726.427C-573 722.786 -530.667 385.042 -530.667 385.042Z" fill="#FFC000"/>
</svg>
